module yu_ma_api

// +heroku goVersion 1.15
go 1.15

require (
	github.com/go-sql-driver/mysql v1.5.0
	github.com/gorilla/mux v1.8.0
	github.com/gorilla/securecookie v1.1.1
	golang.org/x/crypto v0.0.0-20201221181555-eec23a3978ad
)
